{
    "type": "postgres",
    "host": "database-1.cal3cwoyido1.us-east-1.rds.amazonaws.com",
    "port": 5432,
    "username": "postgres",
    "password": "dY2bnChgkNnZAiS",
    "database": "postgres",
    "schema": "dev-yanina",
    "synchronize": "true",
    "entities": [
        "dist/entities/entidades.entity.js"
    ]
}